…
2. Devise a strategy for filling in all of the missing values in the dataset. The
strategy does not need to be sophisticated. For example, you could use
the mean/median for that day, or the mean for that 5-minute interval, etc.  

```r
activity %>%
    group_by(date) %>%
    summarize(total = n(),
              missing = sum(is.na(steps)))
```

```
## # A tibble: 61 x 3
##    date       total missing
##    <date>     <int>   <int>
##  1 2012-10-01   288     288
##  2 2012-10-02   288       0
##  3 2012-10-03   288       0
##  4 2012-10-04   288       0
##  5 2012-10-05   288       0
##  6 2012-10-06   288       0
##  7 2012-10-07   288       0
##  8 2012-10-08   288     288
##  9 2012-10-09   288       0
## 10 2012-10-10   288       0
## # ... with 51 more rows
```
…
